{
  "cricket_team": "india",
  "players": [
    {
      "id": "1",
      "name": "Dawan"
    },
    {
      "id": "1",
      "name": "Rohit"
    },
    {
      "id": "1",
      "name": "Kohli"
    },
    {
      "id": "1",
      "name": "Yuvaraj"
    },
    {
      "id": "1",
      "name": "Raina"
    },
    {
      "id": "1",
      "name": "Dhoni"
    },
    {
      "id": "1",
      "name": "Pandiya"
    },
    {
      "id": "1",
      "name": "Ashwin"
    },
    {
      "id": "1",
      "name": "bumra"
    },
    {
      "id": "1",
      "name": "Nehra"
    },
    {
      "id": "1",
      "name": "Buveneswar"
    },
    {
      "id": "1",
      "name": "Jadeja"
    }
  ]
}